{
    "key": "group_57bd7bef4e720",
    "title": "Wyb\u00f3r podga\u0142\u0119zi - Osprz\u0119t do spawania i ci\u0119cia gazowego",
    "fields": [
        {
            "key": "field_57baf02ef279f",
            "label": "Podga\u0142\u0105\u017a",
            "name": "podga\u0142\u0105\u017a",
            "type": "taxonomy",
            "instructions": "",
            "required": 0,
            "conditional_logic": 0,
            "wrapper": {
                "width": "",
                "class": "",
                "id": ""
            },
            "taxonomy": "gas_welding_device_type",
            "field_type": "select",
            "allow_null": 1,
            "add_term": 0,
            "save_terms": 1,
            "load_terms": 0,
            "return_format": "object",
            "multiple": 0
        }
    ],
    "location": [
        [
            {
                "param": "post_type",
                "operator": "==",
                "value": "gas_welding_device"
            }
        ]
    ],
    "menu_order": 0,
    "position": "side",
    "style": "default",
    "label_placement": "top",
    "instruction_placement": "label",
    "hide_on_screen": "",
    "active": 1,
    "description": "",
    "modified": 1475586727
}