{
    "key": "group_57bd7beca27d4",
    "title": "Typ postu podrz\u0119dnego",
    "fields": [
        {
            "key": "field_57a9885893343",
            "label": "Typ post\u00f3w wy\u015bwietlanych na stronie",
            "name": "typ_postu_podrzednego",
            "type": "select",
            "instructions": "",
            "required": 1,
            "conditional_logic": 0,
            "wrapper": {
                "width": "",
                "class": "",
                "id": ""
            },
            "choices": {
                "welding_device": "Urz\u0105dzenia do spawania",
                "welding_material": "Materia\u0142y spawalnicze",
                "welding_handle": "Uchwyty spawalnicze",
                "plasma_device": "Urz\u0105dzenia i osprz\u0119t do ci\u0119cia plazmowego",
                "gas_welding_device": "Osprz\u0119t do spawania i ci\u0119cia gazowego",
                "helping_device": "Osprz\u0119t pomocniczy",
                "welding_chemical": "Chemia spawalnicza",
                "abrasive_material": "Materia\u0142y \u015bcierne",
                "soldering_device": "Urz\u0105dzenia i osprz\u0119t do zgrzewania",
                "personal_protection": "\u015arodki ochrony indywidualnej",
                "dust_exhaust_device": "Odci\u0105gi py\u0142\u00f3w i dym\u00f3w",
                "welding_protection": "Ochrona stanowiska spawalniczego",
                "welding_automation": "Urz\u0105dzenia do mechanizacji i automatyzacji spawania i ci\u0119cia",
                "welding_robot": "Roboty spawalnicze",
                "control_device": "Urz\u0105dzenia i materia\u0142y kontrolno\u2013pomiarowe",
                "auto_warehouse": "Automatyczny magazyn"
            },
            "default_value": [],
            "allow_null": 0,
            "multiple": 0,
            "ui": 0,
            "ajax": 0,
            "placeholder": "",
            "return_format": "value"
        }
    ],
    "location": [
        [
            {
                "param": "page_parent",
                "operator": "==",
                "value": "11"
            }
        ]
    ],
    "menu_order": 0,
    "position": "side",
    "style": "default",
    "label_placement": "top",
    "instruction_placement": "label",
    "hide_on_screen": [
        "the_content"
    ],
    "active": 1,
    "description": "",
    "modified": 1475586181
}