{
    "key": "group_57bd9165e60ba",
    "title": "Pola produkt\u00f3w",
    "fields": [
        {
            "key": "field_57bd918bdb45d",
            "label": "Do pobrania",
            "name": "do_pobrania",
            "type": "repeater",
            "instructions": "",
            "required": 0,
            "conditional_logic": 0,
            "wrapper": {
                "width": "",
                "class": "",
                "id": ""
            },
            "collapsed": "",
            "min": "",
            "max": "",
            "layout": "table",
            "button_label": "Dodaj wiersz",
            "sub_fields": [
                {
                    "key": "field_57bd91d5db45e",
                    "label": "Plik",
                    "name": "plik",
                    "type": "file",
                    "instructions": "",
                    "required": 0,
                    "conditional_logic": 0,
                    "wrapper": {
                        "width": "",
                        "class": "",
                        "id": ""
                    },
                    "return_format": "array",
                    "library": "all",
                    "min_size": "",
                    "max_size": "",
                    "mime_types": ""
                }
            ]
        },
        {
            "key": "field_57bd95126d570",
            "label": "Dane techniczne",
            "name": "dane_techniczne",
            "type": "repeater",
            "instructions": "",
            "required": 0,
            "conditional_logic": 0,
            "wrapper": {
                "width": "",
                "class": "",
                "id": ""
            },
            "collapsed": "",
            "min": "",
            "max": "",
            "layout": "table",
            "button_label": "Dodaj parametr",
            "sub_fields": [
                {
                    "key": "field_57ea335883968",
                    "label": "Z wci\u0119ciem",
                    "name": "indented",
                    "type": "true_false",
                    "instructions": "",
                    "required": 0,
                    "conditional_logic": 0,
                    "wrapper": {
                        "width": "7",
                        "class": "",
                        "id": ""
                    },
                    "message": "",
                    "default_value": 0
                },
                {
                    "key": "field_57bd95296d571",
                    "label": "Nazwa pola",
                    "name": "nazwa_pola",
                    "type": "text",
                    "instructions": "",
                    "required": 0,
                    "conditional_logic": 0,
                    "wrapper": {
                        "width": "53",
                        "class": "",
                        "id": ""
                    },
                    "default_value": "",
                    "placeholder": "",
                    "prepend": "",
                    "append": "",
                    "maxlength": ""
                },
                {
                    "key": "field_57bd95386d572",
                    "label": "Warto\u015b\u0107",
                    "name": "warto\u015b\u0107",
                    "type": "text",
                    "instructions": "",
                    "required": 0,
                    "conditional_logic": 0,
                    "wrapper": {
                        "width": "40",
                        "class": "",
                        "id": ""
                    },
                    "default_value": "",
                    "placeholder": "",
                    "prepend": "",
                    "append": "",
                    "maxlength": ""
                }
            ]
        },
        {
            "key": "field_57bd9664ead06",
            "label": "Wideo",
            "name": "wideo",
            "type": "oembed",
            "instructions": "",
            "required": 0,
            "conditional_logic": 0,
            "wrapper": {
                "width": "",
                "class": "",
                "id": ""
            },
            "width": 640,
            "height": 390
        },
        {
            "key": "field_57bda0609bba0",
            "label": "Zdj\u0119cia",
            "name": "zdj\u0119cia",
            "type": "gallery",
            "instructions": "",
            "required": 0,
            "conditional_logic": 0,
            "wrapper": {
                "width": "",
                "class": "",
                "id": ""
            },
            "min": "",
            "max": "",
            "insert": "append",
            "library": "all",
            "min_width": "",
            "min_height": "",
            "min_size": "",
            "max_width": "",
            "max_height": "",
            "max_size": "",
            "mime_types": ""
        }
    ],
    "location": [
        [
            {
                "param": "post_type",
                "operator": "==",
                "value": "welding_device"
            }
        ],
        [
            {
                "param": "post_type",
                "operator": "==",
                "value": "welding_material"
            }
        ],
        [
            {
                "param": "post_type",
                "operator": "==",
                "value": "welding_handle"
            }
        ],
        [
            {
                "param": "post_type",
                "operator": "==",
                "value": "plasma_device"
            }
        ],
        [
            {
                "param": "post_type",
                "operator": "==",
                "value": "gas_welding_device"
            }
        ],
        [
            {
                "param": "post_type",
                "operator": "==",
                "value": "helping_device"
            }
        ],
        [
            {
                "param": "post_type",
                "operator": "==",
                "value": "welding_chemical"
            }
        ],
        [
            {
                "param": "post_type",
                "operator": "==",
                "value": "abrasive_material"
            }
        ],
        [
            {
                "param": "post_type",
                "operator": "==",
                "value": "soldering_device"
            }
        ],
        [
            {
                "param": "post_type",
                "operator": "==",
                "value": "personal_protection"
            }
        ],
        [
            {
                "param": "post_type",
                "operator": "==",
                "value": "dust_exhaust_device"
            }
        ],
        [
            {
                "param": "post_type",
                "operator": "==",
                "value": "welding_protection"
            }
        ],
        [
            {
                "param": "post_type",
                "operator": "==",
                "value": "welding_automation"
            }
        ],
        [
            {
                "param": "post_type",
                "operator": "==",
                "value": "welding_robot"
            }
        ],
        [
            {
                "param": "post_type",
                "operator": "==",
                "value": "welding_robot"
            }
        ],
        [
            {
                "param": "post_type",
                "operator": "==",
                "value": "control_device"
            }
        ],
        [
            {
                "param": "post_type",
                "operator": "==",
                "value": "auto_warehouse"
            }
        ]
    ],
    "menu_order": 0,
    "position": "normal",
    "style": "default",
    "label_placement": "top",
    "instruction_placement": "label",
    "hide_on_screen": "",
    "active": 1,
    "description": "",
    "modified": 1475646902
}