{
    "key": "group_57bd7be76df07",
    "title": "Filtr 19 - moc znamionowa",
    "fields": [
        {
            "key": "field_57bae6eb4faf0",
            "label": "Moc znamionowa",
            "name": "moc_znamionowa",
            "type": "number",
            "instructions": "w kVA",
            "required": 0,
            "conditional_logic": 0,
            "wrapper": {
                "width": "",
                "class": "",
                "id": ""
            },
            "default_value": "",
            "placeholder": "",
            "prepend": "",
            "append": "kVA",
            "min": "",
            "max": "",
            "step": ""
        }
    ],
    "location": [
        [
            {
                "param": "post_taxonomy",
                "operator": "==",
                "value": "soldering_device_type:urzadzenia-zgrzewajace"
            }
        ]
    ],
    "menu_order": 0,
    "position": "normal",
    "style": "seamless",
    "label_placement": "top",
    "instruction_placement": "label",
    "hide_on_screen": "",
    "active": 1,
    "description": "",
    "modified": 1476880163
}