{
    "key": "group_57bd7be4cd524",
    "title": "Filtr 06 - oscylacja",
    "fields": [
        {
            "key": "field_57bae3bebc9f7",
            "label": "Oscylacja",
            "name": "oscylacja",
            "type": "radio",
            "instructions": "",
            "required": 0,
            "conditional_logic": 0,
            "wrapper": {
                "width": "",
                "class": "",
                "id": ""
            },
            "choices": {
                "Tak": "Tak",
                "Nie": "Nie"
            },
            "other_choice": 0,
            "save_other_choice": 0,
            "default_value": "",
            "layout": "horizontal",
            "allow_null": 0,
            "return_format": "value"
        }
    ],
    "location": [
        [
            {
                "param": "post_taxonomy",
                "operator": "==",
                "value": "welding_device_type:metoda-tig-spawanie-orbitalne"
            }
        ]
    ],
    "menu_order": 0,
    "position": "normal",
    "style": "seamless",
    "label_placement": "top",
    "instruction_placement": "label",
    "hide_on_screen": "",
    "active": 1,
    "description": "",
    "modified": 1475585070
}